sim/svm_scheduler.vcd
$date
	Fri Feb 21 07:39:59 2025
$end
$version
	Icarus Verilog
$end
$timescale
	1ps
$end
$scope module tb_svm_scheduler $end
$var wire 1 ! transaction_accepted $end
$var wire 64 " inserted_programID [63:0] $end
$var wire 1 # has_conflict $end
$var wire 64 $ conflicting_id [63:0] $end
$var parameter 32 % DEPS_PER_TRANSACTION $end
$var parameter 32 & MAX_TRANSACTIONS $end
$var parameter 64 ' TABLE_SIZE $end
$var reg 1 ( clk $end
$var reg 64 ) owner_programID [63:0] $end
$var reg 65536 * read_dependencies [65535:0] $end
$var reg 1 + rst_n $end
$var reg 1 , transaction_valid $end
$var reg 65536 - write_dependencies [65535:0] $end
$scope module svm_hw_scheduler $end
$var wire 1 ( clk $end
$var wire 64 . conflicting_id [63:0] $end
$var wire 1 # has_conflict $end
$var wire 64 / owner_programID [63:0] $end
$var wire 65536 0 read_dependencies [65535:0] $end
$var wire 1 + rst_n $end
$var wire 1 , transaction_valid $end
$var wire 65536 1 write_dependencies [65535:0] $end
$var wire 1 2 transaction_forwarded $end
$var wire 1 ! transaction_accepted $end
$var wire 1 3 pipeline_ready $end
$var wire 1 4 insertion_ready $end
$var wire 64 5 inserted_programID [63:0] $end
$var wire 1 6 filter_ready $end
$var wire 1 7 filter_has_conflict $end
$var wire 64 8 filter_conflicting_id [63:0] $end
$var wire 1 9 batch_update_valid $end
$var wire 64 : batch_update_id [63:0] $end
$var wire 64 ; accepted_id [63:0] $end
$scope module batch_stage $end
$var wire 1 ( clk $end
$var wire 64 < owner_programID [63:0] $end
$var wire 1 + rst_n $end
$var wire 1 4 insertion_ready $end
$var wire 1 7 has_conflict $end
$var parameter 32 = BATCH_INDEX_BITS $end
$var parameter 32 > MAX_BATCH_SIZE $end
$var reg 64 ? accepted_id [63:0] $end
$var reg 6 @ batch_size [5:0] $end
$var reg 64 A batch_update_id [63:0] $end
$var reg 1 9 batch_update_valid $end
$var reg 64 B inserted_programID [63:0] $end
$var reg 1 3 pipeline_ready $end
$var reg 1 C processing_transaction $end
$var reg 1 ! transaction_accepted $end
$upscope $end
$scope module conflict_check_stage $end
$var wire 64 D accepted_id [63:0] $end
$var wire 1 ( clk $end
$var wire 64 E owner_programID [63:0] $end
$var wire 1 3 pipeline_ready $end
$var wire 65536 F read_dependencies [65535:0] $end
$var wire 1 + rst_n $end
$var wire 1 , transaction_valid $end
$var wire 65536 G write_dependencies [65535:0] $end
$var wire 1 7 has_conflict $end
$var wire 64 H conflicting_id [63:0] $end
$var reg 64 I current_transaction_id [63:0] $end
$var reg 1 2 transaction_forwarded $end
$var reg 1 J waiting_for_acceptance $end
$upscope $end
$scope module filter_stage $end
$var wire 64 K accepted_id [63:0] $end
$var wire 64 L batch_update_id [63:0] $end
$var wire 1 9 batch_update_valid $end
$var wire 1 ( clk $end
$var wire 64 M owner_programID [63:0] $end
$var wire 1 3 pipeline_ready $end
$var wire 65536 N read_dependencies [65535:0] $end
$var wire 1 + rst_n $end
$var wire 1 2 transaction_forwarded $end
$var wire 65536 O write_dependencies [65535:0] $end
$var parameter 32 P DEPS_PER_TRANSACTION $end
$var parameter 32 Q MAX_TRANSACTIONS $end
$var parameter 32 R TABLE_INDEX_BITS $end
$var parameter 64 S TABLE_SIZE $end
$var reg 64 T conflicting_id [63:0] $end
$var reg 65536 U current_read_deps [65535:0] $end
$var reg 64 V current_transaction_id [63:0] $end
$var reg 65536 W current_write_deps [65535:0] $end
$var reg 1 6 filter_ready $end
$var reg 1 7 has_conflict $end
$var reg 16 X table_size [15:0] $end
$var reg 1 Y waiting_for_acceptance $end
$var integer 32 Z i [31:0] $end
$var integer 32 [ j [31:0] $end
$upscope $end
$scope module insertion_stage $end
$var wire 64 \ accepted_id [63:0] $end
$var wire 1 ( clk $end
$var wire 1 6 filter_ready $end
$var wire 64 ] owner_programID [63:0] $end
$var wire 1 3 pipeline_ready $end
$var wire 1 + rst_n $end
$var reg 64 ^ current_transaction_id [63:0] $end
$var reg 1 4 insertion_ready $end
$var reg 1 _ waiting_for_acceptance $end
$upscope $end
$upscope $end
$scope task clear_dependencies $end
$upscope $end
$scope task display_dependencies $end
$var reg 64 ` prog_id [63:0] $end
$var integer 32 a i [31:0] $end
$upscope $end
$scope task set_dependency $end
$var reg 10 b index [9:0] $end
$var reg 1 c is_read $end
$var reg 64 d value [63:0] $end
$upscope $end
$scope task set_read_dependency $end
$var reg 64 e addr [63:0] $end
$upscope $end
$scope task set_write_dependency $end
$var reg 64 f addr [63:0] $end
$upscope $end
$scope task submit_transaction $end
$var reg 64 g prog_id [63:0] $end
$upscope $end
$scope task wait_for_acceptance $end
$upscope $end
$upscope $end
$enddefinitions $end
$comment Show the parameter values. $end
$dumpall
b1100000000000000 S
b10000 R
b110000 Q
b10000000000 P
b110000 >
b110 =
b1100000000000000 '
b110000 &
b10000000000 %
$end
#0
$dumpvars
bx g
bx f
bx e
bx d
xc
bx b
bx a
bx `
0_
b0 ^
b0 ]
b0 \
bx [
b1100000000000000 Z
0Y
b0 X
b0 W
b0 V
b0 U
b0 T
b0 O
b0 N
b0 M
b0 L
b0 K
0J
b0 I
b0 H
b0 G
b0 F
b0 E
b0 D
0C
b0 B
b0 A
b0 @
b0 ?
b0 <
b0 ;
b0 :
09
b0 8
07
06
b0 5
04
13
02
b0 1
b0 0
b0 /
b0 .
b0 -
0,
0+
b0 *
b0 )
0(
b0 $
0#
b0 "
0!
$end
#5000
b1100000000000000 Z
1(
#10000
0(
#15000
b1100000000000000 Z
1(
#20000
0(
#25000
b1100000000000000 Z
1(
#30000
0(
#35000
b1100000000000000 Z
1(
#40000
0(
#45000
b1100000000000000 Z
1(
#50000
0(
#55000
b1100000000000000 Z
1(
#60000
0(
#65000
b1100000000000000 Z
1(
#70000
0(
#75000
b1100000000000000 Z
1(
#80000
0(
#85000
b1100000000000000 Z
1(
#90000
0(
#95000
b1100000000000000 Z
1(
#100000
0(
b1 g
b10100000000000000000000000000000000000000000000000000000000000000000000000000000000000000000000000000000000000000000000000000000000 -
b10100000000000000000000000000000000000000000000000000000000000000000000000000000000000000000000000000000000000000000000000000000000 1
b10100000000000000000000000000000000000000000000000000000000000000000000000000000000000000000000000000000000000000000000000000000000 G
b10100000000000000000000000000000000000000000000000000000000000000000000000000000000000000000000000000000000000000000000000000000000 O
0c
b101 d
b10 b
1+
#105000
b1 I
1J
12
1,
b1 )
b1 /
b1 <
b1 E
b1 M
b1 ]
1(
#110000
0(
#115000
02
0J
16
1Y
b10100000000000000000000000000000000000000000000000000000000000000000000000000000000000000000000000000000000000000000000000000000000 W
b1 V
b0 Z
1(
#120000
0(
#125000
b1 ^
1_
14
0Y
06
1J
12
1(
#130000
0(
#135000
02
0J
16
1Y
04
0_
b1 ;
b1 ?
b1 D
b1 K
b1 \
b1 :
b1 A
b1 L
19
b1 "
b1 5
b1 B
1!
b1 @
03
1C
1(
#140000
0(
#145000
13
0C
b0 ;
b0 ?
b0 D
b0 K
b0 \
b0 :
b0 A
b0 L
09
b0 "
b0 5
b0 B
0!
0Y
b1 X
06
b10000000000 [
b10 g
b1010000000000000000000000000000000000000000000000000000000000000000000000000000000000000000000000000000000000000000000000000000000000000000000000000000000000000000000000000000000000000000000000000000000000000000000000000000000000000000000000000000000000000000000000000000000000000000000000000000000000000000000000000000000000000000000000000000000000000000000000000000000000000000000000000000000000000000000000000000000000000000000000000000000000000000000000000000000000000000000000000000000000000000000000000000000000000000000000000000000000000000000000000000000000000000000000000000000000000000000000000000000000000000000000000000000000000000 *
b1010000000000000000000000000000000000000000000000000000000000000000000000000000000000000000000000000000000000000000000000000000000000000000000000000000000000000000000000000000000000000000000000000000000000000000000000000000000000000000000000000000000000000000000000000000000000000000000000000000000000000000000000000000000000000000000000000000000000000000000000000000000000000000000000000000000000000000000000000000000000000000000000000000000000000000000000000000000000000000000000000000000000000000000000000000000000000000000000000000000000000000000000000000000000000000000000000000000000000000000000000000000000000000000000000000000000000000 0
b1010000000000000000000000000000000000000000000000000000000000000000000000000000000000000000000000000000000000000000000000000000000000000000000000000000000000000000000000000000000000000000000000000000000000000000000000000000000000000000000000000000000000000000000000000000000000000000000000000000000000000000000000000000000000000000000000000000000000000000000000000000000000000000000000000000000000000000000000000000000000000000000000000000000000000000000000000000000000000000000000000000000000000000000000000000000000000000000000000000000000000000000000000000000000000000000000000000000000000000000000000000000000000000000000000000000000000000 F
b1010000000000000000000000000000000000000000000000000000000000000000000000000000000000000000000000000000000000000000000000000000000000000000000000000000000000000000000000000000000000000000000000000000000000000000000000000000000000000000000000000000000000000000000000000000000000000000000000000000000000000000000000000000000000000000000000000000000000000000000000000000000000000000000000000000000000000000000000000000000000000000000000000000000000000000000000000000000000000000000000000000000000000000000000000000000000000000000000000000000000000000000000000000000000000000000000000000000000000000000000000000000000000000000000000000000000000000 N
1c
b1010 b
b0 -
b0 1
b0 G
b0 O
1(
#150000
0(
#155000
b10 I
1J
12
b10 )
b10 /
b10 <
b10 E
b10 M
b10 ]
1(
#160000
0(
#165000
16
b1 $
b1 .
b1 8
b1 H
b1 T
1#
17
1Y
b0 W
b1010000000000000000000000000000000000000000000000000000000000000000000000000000000000000000000000000000000000000000000000000000000000000000000000000000000000000000000000000000000000000000000000000000000000000000000000000000000000000000000000000000000000000000000000000000000000000000000000000000000000000000000000000000000000000000000000000000000000000000000000000000000000000000000000000000000000000000000000000000000000000000000000000000000000000000000000000000000000000000000000000000000000000000000000000000000000000000000000000000000000000000000000000000000000000000000000000000000000000000000000000000000000000000000000000000000000000000 U
b10 V
02
0J
b1 Z
b10000000000 [
1(
#170000
0(
#175000
1J
12
b0 $
b0 .
b0 8
b0 H
b0 T
0#
07
0Y
06
b10 ^
1_
14
b11 g
b1010000000000000000000000000000000000000000000000000000000000000000000000000000000000000000000000000000000000000000000000000000000000000000000000000000000000000000000000000000000000000000000000000000000000000000000000000000000000000000000000000000000000000000000000000000000000000000000000000000000000000000000000000000000000000000000000000000000000000000000000000000000000000000000000000000000000000000000000000000000000000000000000000000000000000000000000000000000000000000000000000000000000000000000000000000000000000000000000000000000000000000000000000000000000000000000000000000000000000000000000000000000000000000000000000000000000000000000000000000000000000000000000000000000000000000000000000000000000000000000000000000000000000000000000000000000000000000000000000 -
b1010000000000000000000000000000000000000000000000000000000000000000000000000000000000000000000000000000000000000000000000000000000000000000000000000000000000000000000000000000000000000000000000000000000000000000000000000000000000000000000000000000000000000000000000000000000000000000000000000000000000000000000000000000000000000000000000000000000000000000000000000000000000000000000000000000000000000000000000000000000000000000000000000000000000000000000000000000000000000000000000000000000000000000000000000000000000000000000000000000000000000000000000000000000000000000000000000000000000000000000000000000000000000000000000000000000000000000000000000000000000000000000000000000000000000000000000000000000000000000000000000000000000000000000000000000000000000000000000000 1
b1010000000000000000000000000000000000000000000000000000000000000000000000000000000000000000000000000000000000000000000000000000000000000000000000000000000000000000000000000000000000000000000000000000000000000000000000000000000000000000000000000000000000000000000000000000000000000000000000000000000000000000000000000000000000000000000000000000000000000000000000000000000000000000000000000000000000000000000000000000000000000000000000000000000000000000000000000000000000000000000000000000000000000000000000000000000000000000000000000000000000000000000000000000000000000000000000000000000000000000000000000000000000000000000000000000000000000000000000000000000000000000000000000000000000000000000000000000000000000000000000000000000000000000000000000000000000000000000000000 G
b1010000000000000000000000000000000000000000000000000000000000000000000000000000000000000000000000000000000000000000000000000000000000000000000000000000000000000000000000000000000000000000000000000000000000000000000000000000000000000000000000000000000000000000000000000000000000000000000000000000000000000000000000000000000000000000000000000000000000000000000000000000000000000000000000000000000000000000000000000000000000000000000000000000000000000000000000000000000000000000000000000000000000000000000000000000000000000000000000000000000000000000000000000000000000000000000000000000000000000000000000000000000000000000000000000000000000000000000000000000000000000000000000000000000000000000000000000000000000000000000000000000000000000000000000000000000000000000000000000 O
0c
b1010 d
b1100 b
b0 *
b0 0
b0 F
b0 N
b10000000000 a
b10 `
1(
#180000
0(
#185000
b11 ;
b11 ?
b11 D
b11 K
b11 \
b11 :
b11 A
b11 L
19
b11 "
b11 5
b11 B
1!
b10 @
03
1C
04
0_
16
1Y
b1010000000000000000000000000000000000000000000000000000000000000000000000000000000000000000000000000000000000000000000000000000000000000000000000000000000000000000000000000000000000000000000000000000000000000000000000000000000000000000000000000000000000000000000000000000000000000000000000000000000000000000000000000000000000000000000000000000000000000000000000000000000000000000000000000000000000000000000000000000000000000000000000000000000000000000000000000000000000000000000000000000000000000000000000000000000000000000000000000000000000000000000000000000000000000000000000000000000000000000000000000000000000000000000000000000000000000000000000000000000000000000000000000000000000000000000000000000000000000000000000000000000000000000000000000000000000000000000000000 W
b0 U
b11 V
02
0J
b10000000000 [
b1 Z
b11 )
b11 /
b11 <
b11 E
b11 M
b11 ]
1(
#190000
0(
#195000
0Y
b10 X
06
13
0C
b0 ;
b0 ?
b0 D
b0 K
b0 \
b0 :
b0 A
b0 L
09
b0 "
b0 5
b0 B
0!
b10000000000 [
b100 g
b1111 b
b1010000000000000000000000000000000000000000000000000000000000000000000000000000000000000000000000000000000000000000000000000000000000000000000000000000000000000000000000000000000000000000000000000000000000000000000000000000000000000000000000000000000000000000000000000000000000000000000000000000000000000000000000000000000000000000000000000000000000000000000000000000000000000000000000000000000000000000000000000000000000000000000000000000000000000000000000000000000000000000000000000000000000000000000000000000000000000000000000000000000000000000000000000000000000000000000000000000000000000000000000000000000000000000000000000000000000000000000000000000000000000000000000000000000000000000000000000000000000000000000000000000000000000000000000000000000000000000000000000000000000000000000000000000000000000000000000000000000000000000000000000000000000000000000000000000000000000000000000000000000000000000000000000000000000000000000000000000000000000000000000000 -
b1010000000000000000000000000000000000000000000000000000000000000000000000000000000000000000000000000000000000000000000000000000000000000000000000000000000000000000000000000000000000000000000000000000000000000000000000000000000000000000000000000000000000000000000000000000000000000000000000000000000000000000000000000000000000000000000000000000000000000000000000000000000000000000000000000000000000000000000000000000000000000000000000000000000000000000000000000000000000000000000000000000000000000000000000000000000000000000000000000000000000000000000000000000000000000000000000000000000000000000000000000000000000000000000000000000000000000000000000000000000000000000000000000000000000000000000000000000000000000000000000000000000000000000000000000000000000000000000000000000000000000000000000000000000000000000000000000000000000000000000000000000000000000000000000000000000000000000000000000000000000000000000000000000000000000000000000000000000000000000000000000 1
b1010000000000000000000000000000000000000000000000000000000000000000000000000000000000000000000000000000000000000000000000000000000000000000000000000000000000000000000000000000000000000000000000000000000000000000000000000000000000000000000000000000000000000000000000000000000000000000000000000000000000000000000000000000000000000000000000000000000000000000000000000000000000000000000000000000000000000000000000000000000000000000000000000000000000000000000000000000000000000000000000000000000000000000000000000000000000000000000000000000000000000000000000000000000000000000000000000000000000000000000000000000000000000000000000000000000000000000000000000000000000000000000000000000000000000000000000000000000000000000000000000000000000000000000000000000000000000000000000000000000000000000000000000000000000000000000000000000000000000000000000000000000000000000000000000000000000000000000000000000000000000000000000000000000000000000000000000000000000000000000000000 G
b1010000000000000000000000000000000000000000000000000000000000000000000000000000000000000000000000000000000000000000000000000000000000000000000000000000000000000000000000000000000000000000000000000000000000000000000000000000000000000000000000000000000000000000000000000000000000000000000000000000000000000000000000000000000000000000000000000000000000000000000000000000000000000000000000000000000000000000000000000000000000000000000000000000000000000000000000000000000000000000000000000000000000000000000000000000000000000000000000000000000000000000000000000000000000000000000000000000000000000000000000000000000000000000000000000000000000000000000000000000000000000000000000000000000000000000000000000000000000000000000000000000000000000000000000000000000000000000000000000000000000000000000000000000000000000000000000000000000000000000000000000000000000000000000000000000000000000000000000000000000000000000000000000000000000000000000000000000000000000000000000000 O
1(
#200000
0(
#205000
b100 I
1J
12
b100 )
b100 /
b100 <
b100 E
b100 M
b100 ]
1(
#210000
0(
#215000
02
0J
16
b11 $
b11 .
b11 8
b11 H
b11 T
1#
17
1Y
b1010000000000000000000000000000000000000000000000000000000000000000000000000000000000000000000000000000000000000000000000000000000000000000000000000000000000000000000000000000000000000000000000000000000000000000000000000000000000000000000000000000000000000000000000000000000000000000000000000000000000000000000000000000000000000000000000000000000000000000000000000000000000000000000000000000000000000000000000000000000000000000000000000000000000000000000000000000000000000000000000000000000000000000000000000000000000000000000000000000000000000000000000000000000000000000000000000000000000000000000000000000000000000000000000000000000000000000000000000000000000000000000000000000000000000000000000000000000000000000000000000000000000000000000000000000000000000000000000000000000000000000000000000000000000000000000000000000000000000000000000000000000000000000000000000000000000000000000000000000000000000000000000000000000000000000000000000000000000000000000000000 W
b100 V
b10000000000 [
b10 Z
1(
#220000
0(
#225000
b100 ^
1_
14
b0 $
b0 .
b0 8
b0 H
b0 T
0#
07
0Y
06
1J
12
b101 g
b1000000000000000 *
b1000000000000000 0
b1000000000000000 F
b1000000000000000 N
b1111 e
b0 -
b0 1
b0 G
b0 O
b10000000000 a
b100 `
1(
#230000
0(
#235000
02
0J
16
1Y
b0 W
b1000000000000000 U
b101 V
04
0_
b101 ;
b101 ?
b101 D
b101 K
b101 \
b101 :
b101 A
b101 L
19
b101 "
b101 5
b101 B
1!
b11 @
03
1C
b10000000000 [
b10 Z
b101 )
b101 /
b101 <
b101 E
b101 M
b101 ]
1(
#240000
0(
#245000
13
0C
b0 ;
b0 ?
b0 D
b0 K
b0 \
b0 :
b0 A
b0 L
09
b0 "
b0 5
b0 B
0!
0Y
b11 X
06
b10000000000 [
b110 g
b1000000000000000 -
b1000000000000000 1
b1000000000000000 G
b1000000000000000 O
b1111 f
b0 *
b0 0
b0 F
b0 N
1(
#250000
0(
#255000
b110 I
1J
12
b110 )
b110 /
b110 <
b110 E
b110 M
b110 ]
1(
#260000
0(
#265000
16
b101 $
b101 .
b101 8
b101 H
b101 T
1#
17
1Y
b1000000000000000 W
b0 U
b110 V
02
0J
b10000000000 [
b11 Z
1(
#270000
0(
#275000
1J
12
b0 $
b0 .
b0 8
b0 H
b0 T
0#
07
0Y
06
b110 ^
1_
14
b0 -
b0 1
b0 G
b0 O
b10000000000 a
b110 `
1(
#280000
0(
#285000
b110 ;
b110 ?
b110 D
b110 K
b110 \
b110 :
b110 A
b110 L
19
b110 "
b110 5
b110 B
1!
b100 @
03
1C
04
0_
16
1Y
b0 W
02
0J
b10000000000 [
b11 Z
1(
#290000
0(
#295000
0Y
06
13
0C
b0 ;
b0 ?
b0 D
b0 K
b0 \
b0 :
b0 A
b0 L
09
b0 "
b0 5
b0 B
0!
b10000000000 [
b1011 g
1(
#300000
0(
#305000
b1011 I
1J
12
b1011 )
b1011 /
b1011 <
b1011 E
b1011 M
b1011 ]
1(
#310000
0(
#315000
02
0J
16
1Y
b1011 V
b10000000000 [
b11 Z
1(
#320000
0(
#325000
b1011 ^
1_
14
0Y
06
1J
12
1(
#330000
0(
#335000
02
0J
16
1Y
04
0_
b1011 ;
b1011 ?
b1011 D
b1011 K
b1011 \
b1011 :
b1011 A
b1011 L
19
b1011 "
b1011 5
b1011 B
1!
b101 @
03
1C
b10000000000 [
b11 Z
1(
#340000
0(
#345000
13
0C
b0 ;
b0 ?
b0 D
b0 K
b0 \
b0 :
b0 A
b0 L
09
b0 "
b0 5
b0 B
0!
0Y
06
b10000000000 [
b10011010010 g
b100000000000 -
b100000000000 1
b100000000000 G
b100000000000 O
b1011 f
1(
#350000
0(
#355000
b10011010010 I
1J
12
b10011010010 )
b10011010010 /
b10011010010 <
b10011010010 E
b10011010010 M
b10011010010 ]
1(
#360000
0(
#365000
16
1Y
b100000000000 W
b10011010010 V
02
0J
b10000000000 [
b11 Z
1(
#370000
0(
#375000
1J
12
0Y
06
b10011010010 ^
1_
14
1(
#380000
0(
#385000
b10011010010 ;
b10011010010 ?
b10011010010 D
b10011010010 K
b10011010010 \
b10011010010 :
b10011010010 A
b10011010010 L
19
b10011010010 "
b10011010010 5
b10011010010 B
1!
b110 @
03
1C
04
0_
16
1Y
02
0J
b10000000000 [
b11 Z
1(
#390000
0(
#395000
0Y
b100 X
06
13
0C
b0 ;
b0 ?
b0 D
b0 K
b0 \
b0 :
b0 A
b0 L
09
b0 "
b0 5
b0 B
0!
b10000000000 [
b1000011100001 g
b100000000000 -
b100000000000 1
b100000000000 G
b100000000000 O
1(
#400000
0(
#405000
b1000011100001 I
1J
12
b1000011100001 )
b1000011100001 /
b1000011100001 <
b1000011100001 E
b1000011100001 M
b1000011100001 ]
1(
#410000
0(
#415000
02
0J
16
b10011010010 $
b10011010010 .
b10011010010 8
b10011010010 H
b10011010010 T
1#
17
1Y
b1000011100001 V
b10000000000 [
b100 Z
1(
#420000
0(
#425000
b1000011100001 ^
1_
14
b0 $
b0 .
b0 8
b0 H
b0 T
0#
07
0Y
06
1J
12
b10000000000 a
b1000011100001 `
1(
#430000
0(
#435000
02
0J
16
b10011010010 $
b10011010010 .
b10011010010 8
b10011010010 H
b10011010010 T
1#
17
1Y
04
0_
b1000011100001 ;
b1000011100001 ?
b1000011100001 D
b1000011100001 K
b1000011100001 \
b1000011100001 :
b1000011100001 A
b1000011100001 L
19
b1000011100001 "
b1000011100001 5
b1000011100001 B
1!
b111 @
03
1C
b10000000000 [
b100 Z
1(
#440000
0(
#445000
13
0C
b0 ;
b0 ?
b0 D
b0 K
b0 \
b0 :
b0 A
b0 L
09
b0 "
b0 5
b0 B
0!
06
1(
#450000
0(
#455000
1J
12
b0 $
b0 .
b0 8
b0 H
b0 T
0#
07
0Y
1(
#460000
0(
#465000
16
b10011010010 $
b10011010010 .
b10011010010 8
b10011010010 H
b10011010010 T
1#
17
1Y
02
0J
b10000000000 [
b100 Z
1(
#470000
0(
#475000
1J
12
b0 $
b0 .
b0 8
b0 H
b0 T
0#
07
0Y
06
1_
14
1(
#480000
0(
#485000
b1000011100001 ;
b1000011100001 ?
b1000011100001 D
b1000011100001 K
b1000011100001 \
b1000011100001 :
b1000011100001 A
b1000011100001 L
19
b1000011100001 "
b1000011100001 5
b1000011100001 B
1!
b1000 @
03
1C
04
0_
16
b10011010010 $
b10011010010 .
b10011010010 8
b10011010010 H
b10011010010 T
1#
17
1Y
02
0J
b10000000000 [
b100 Z
1(
#490000
0(
#495000
06
13
0C
b0 ;
b0 ?
b0 D
b0 K
b0 \
b0 :
b0 A
b0 L
09
b0 "
b0 5
b0 B
0!
1(
#500000
0(
#505000
b0 $
b0 .
b0 8
b0 H
b0 T
0#
07
0Y
1J
12
1(
#510000
0(
#515000
02
0J
16
b10011010010 $
b10011010010 .
b10011010010 8
b10011010010 H
b10011010010 T
1#
17
1Y
b10000000000 [
b100 Z
1(
#520000
0(
#525000
1_
14
b0 $
b0 .
b0 8
b0 H
b0 T
0#
07
0Y
06
1J
12
1(
